Име,Презиме,Индекс,Насока,1,2,3,4,5,6,7,Колоквиум 1
Агрон,Муареми,282/2016,ТКИИ,,,,,,,,
Адриан,Азизи,10/2017,КТИ,10,0,4,0,1,21,0,36
Александра,Павлеска,259/2017,ТКИИ,,,,,,,,
Александра,Стојаноска,79/2017,ЕАОИЕ,15,9,18,11,2,25,5,85
Александро,Василевски,109/2017,ЕАОИЕ,12,9,16,8,0,25,5,75
Ана,Ампова,5/2017,КХИЕ,15,10,20,9,10,21,5,90
Ана,Ангелова,38/2017,ЕАОИЕ,,,,,,,,
Ана Марија,Трајковска,237/2017,КХИЕ,0,5,12,13,2,21,5,58
Анастасија,Смиљанова,276/2017,ЕАОИЕ,12,0,12,13,3,13,5,58
Ангела,Димовска,178/2017,КТИ,,,,,,,,
Ангела,Најдоска,31/2017,КТИ,4,0,14,12,10,16,0,56
Ангела,Стаматовска,104/2017,ЕЕС,,,,,,,,
Ангела,Тасиќ,266/2017,ТКИИ,2,0,10,4,3,16,0,35
Андон,Манолев,225/2017,КХИЕ,,,,,,,,
Андреа,Ивановска,16/2017,КХИЕ,12,3,20,13,5,21,5,79
Андреј,Илиески,216/2017,КХИЕ,2,1,0,9,10,18,0,40
Андреј,Маркоски,255/2017,ТКИИ,,,,,,,,
Андреј,Попов,261/2017,ТКИИ,12,7,15,9,10,21,0,74
Андриана,Шопковска,91/2017,ЕАОИЕ,,,,,,,,
Аница,Крстевска,24/2016,ЕАОИЕ,,,,,,,,
Благоја,Тодоровски,235/2017,КХИЕ,2,8,8,3,3,12,0,36
Божица,Јовановска,99/2017,ЕЕС,,,,,,,,
Бојан,Младеновски,228/2017,КХИЕ,7,0,11,0,10,0,5,33
Бојана,Цубалевска,106/2017,ЕЕС,7,3,8,2,0,0,0,20
Валерија,Младеновиќ,227/2017,КХИЕ,7,0,10,2,1,20,0,40
Верица,Пауновиќ,74/2017,ЕАОИЕ,12,5,12,6,0,23,0,58
Виктор,Наумоски,198/2017,КТИ,12,3,12,9,10,16,0,62
Вјолца,Исмајљи,98/2017,ЕЕС,8,0,14,10,10,16,5,63
Владимир,Крстиќ,190/2017,КТИ,7,4,14,7,2,8,0,42
Војдан,Андонов,92/2017,ЕЕС,9,10,17,6,10,21,5,78
Георги,Камчевски,186/2017,КТИ,,,,,,,,
Глигорчо,Крстовски,213/2016,КТИ,,,,,,,,
Ѓорѓи,Димитровски,53/2017,ЕАОИЕ,,,,,,,,
Давид,Иванов,35/2015,ЕАОИЕ,0,0,6,0,1,8,0,15
Давид,Петрушевски,116/2017,ТКИИ,10,0,20,6,10,20,0,66
Давид,Ханџиски,85/2017,ЕАОИЕ,,,,,,,,
Давор,Христов,239/2017,КХИЕ,9,0,0,1,0,20,0,30
Дамјан,Зечевиќ,57/2017,ЕАОИЕ,,,,,,,,
Дамјан,Хаџибанов,27/2017,КХИЕ,,,,,,,,
Даниел,Шијаковски,203/2017,КТИ,13,9,20,10,5,25,5,87
Дара,Велкова,295/2016,КТИ,,,,,,,,
Дарко,Ангеловски,171/2017,КТИ,,,,,,,,
Дарко,Нушев,320/2014,КХИЕ,7,0,0,0,0,10,0,17
Деа,Глигорова,275/2017,ЕАОИЕ,2,0,8,1,0,19,0,30
Дејан,Димитриев,51/2017,ЕАОИЕ,12,9,20,2,2,18,5,68
Димитар,Јаковлески,217/2017,КХИЕ,4,10,20,12,3,25,5,79
Димитар,Мицкоски,151/2017,ЕАОИЕ,15,10,20,8,0,25,5,83
Евгенија,Богоевска,240/2017,ТКИИ,8,6,14,11,3,16,0,58
Елена,Гелебешева,21/2017,ЕАОИЕ,9,0,6,13,10,16,5,59
Елена,Дојчиновска,112/2017,ЕАОИЕ,13,7,8,2,0,20,0,50
Елена,Индовска,184/2017,КТИ,5,0,6,0,1,16,0,28
Елена,Маркоска,19/2017,КХИЕ,2,5,11,8,5,16,0,47
Елеонора,Монева,197/2017,КТИ,0,0,8,3,10,10,5,36
Ема,Симовска,20/2017,КХИЕ,15,10,12,12,10,25,5,89
Емилија,Котевска,187/2017,КТИ,9,0,10,13,7,20,5,64
Жанета,Тренчева,9/2017,ТКИИ,12,10,20,13,10,21,5,91
Иван,Јосифовски,219/2017,КХИЕ,,,,,,,,
Ивана,Митевска,68/2017,ЕАОИЕ,10,8,20,10,1,22,0,71
Ивана,Томоска,12/2016,ТКИИ,,,,,,,,
Илина,Крстевска,222/2017,КХИЕ,12,3,11,12,0,16,0,54
Ирина,Анастасиевска,37/2017,ЕАОИЕ,,,,,,,,
Јана,Михајлоска,3/2017,КХИЕ,12,7,20,3,10,25,0,77
Јован,Делиманов,111/2017,ЕЕУМ,,,,,,,,
Јован,Дуковски,210/2017,КХИЕ,15,4,10,8,0,14,5,56
Јован,Јовановски,218/2017,КХИЕ,,,,,,,,
Камелија,Костовска,333/2016,ЕАОИЕ,,,,,,,,
Костадин,Гетов,95/2017,ЕЕС,12,8,12,9,8,21,0,70
Кристијан,Бундалески,44/2017,КТИ,10,6,8,4,0,16,0,44
Кристина,Илијоска,183/2017,КТИ,0,0,0,0,0,0,0,0
Кристина,Чешларова,304/2017,КХИЕ,0,7,0,0,10,0,0,17
Лориета,Блажевска,42/2017,ЕАОИЕ,12,0,16,8,0,21,0,57
Марија,Атанасова,205/2017,КХИЕ,5,0,8,0,0,16,0,29
Марија,Ѓошева,180/2017,КТИ,4,9,8,10,10,20,5,66
Марија,Димитровска,52/2017,ЕАОИЕ,12,9,20,13,10,21,0,85
Марија,Маринкова,254/2017,ТКИИ,,,,,,,,
Марија,Милојковска,101/2017,ЕЕС,15,10,20,15,10,25,5,100
Марија,Перчуклиевска,14/2017,ТКИИ,,,,,,,,
Марија,Спасовска,274/2017,ЕАОИЕ,13,0,0,5,0,12,0,30
Марин,Глигоров,242/2017,ТКИИ,,,,,,,,
Марио,Наумоски,212/2015,КТИ,5,0,0,0,0,19,0,24
Марко,Камиловски,8/2017,КХИЕ,12,9,20,13,10,25,5,94
Марко,Клинчаров,13/2017,ТКИИ,12,10,20,13,10,25,5,95
Марко,Лалчевски,258/2012,КХИЕ,,,,,,,,
Марко,Стојковски,26/2017,КХИЕ,,,,,,,,
Мартин,Миланоски,256/2016,КХИЕ,2,8,16,1,0,8,0,35
Мартин,Трпески,238/2017,КХИЕ,,,,,,,,
Мартина,Марковска,193/2017,КТИ,12,7,0,9,10,23,5,66
Мартина,Петровска,2/2017,КХИЕ,12,5,17,3,2,25,0,64
Матеа,Анѓелеска,118/2016,ЕЕУМ,,,,,,,,
Матеј,Костоски,12/2017,ТКИИ,12,8,18,12,10,25,0,85
Милица,Мурџева,115/2017,ЕЕУМ,,,,,,,,
Михаела,Лазетиќ,32/2017,КТИ,,,,,,,,
Мурат,Коца,188/2017,ЕЕС,12,9,18,13,10,25,0,87
Никола,Василевски,46/2017,КТИ,12,7,9,13,3,21,0,65
Никола,Јованов,185/2017,КТИ,2,1,18,8,4,16,0,49
Никола,Ненчев,70/2017,КТИ,12,0,16,13,10,18,0,69
Никола,Трифуновски,58/2016,ЕАОИЕ,0,0,0,0,10,12,5,27
Новица,Пауновски,75/2017,ЕАОИЕ,,,,,,,,
Павел,Нечовски,29/2017,ЕАОИЕ,8,3,17,2,10,25,0,65
Павлинка,Ѓоргиевска,295/2017,ТКИИ,0,0,4,3,2,21,0,30
Петар,Илиевски,182/2017,КТИ,12,0,20,13,5,21,5,76
Петар,Савевски,18/2017,КТИ,12,8,10,13,10,22,5,80
Петар,Смилевски Војновиќ,77/2017,КХИЕ,7,6,2,8,0,20,0,43
Раиф,Оручоски,72/2017,ЕАОИЕ,12,3,14,5,1,20,0,55
Сандра,Бјелиќ,17/2017,КХИЕ,2,0,0,0,0,12,0,14
Сара,Котели,1/2017,КХИЕ,2,0,2,1,3,15,0,23
Сара,Павлоска,285/2016,ТКИИ,0,0,4,0,0,16,0,20
Сара,Стојаноска,265/2017,ТКИИ,2,0,6,1,0,20,0,29
Симона,Башеска,34/2017,ТКИИ,,,,,,,,
Симона,Миладиноска,11/2017,ТКИИ,,,,,,,,
Симона,Настевска,69/2017,ЕАОИЕ,2,0,0,3,2,14,0,21
Симона,Симоновска,262/2017,ТКИИ,5,8,6,2,10,16,0,47
Симона,Туџарова,83/2017,ЕАОИЕ,12,5,20,13,10,24,0,84
Снежана,Павлова,294/2017,ТКИИ,,,,,,,,
Софија,Василева,45/2017,ЕАОИЕ,,,,,,,,
Стефан,Вељковиќ,94/2017,ЕЕС,,,,,,,,
Стефан,Ќоропановски,270/2017,ТКИИ,12,5,8,5,0,12,0,42
Стефан,Крстевски,223/2017,КХИЕ,,,,,,,,
Стефан,Тошев,105/2017,ЕЕС,,,,,,,,
Тамара,Јаќимоска,262/2014,ТКИИ,,,,,,,,
Тамара,Јурчиќ,64/2017,ЕАОИЕ,,,,,,,,
Тамара,Маркачевиќ,192/2017,КХИЕ,12,10,20,12,0,16,5,75
Тамара,Тодорова,268/2017,ТКИИ,7,0,0,0,10,12,5,34
Теа,Вељковиќ,129/2017,КХИЕ,12,10,11,13,10,25,5,86
Теа,Димитровска,243/2017,ТКИИ,15,6,6,0,0,20,0,47
Теодора,Антеска,40/2017,ЕАОИЕ,7,5,12,13,1,25,0,63
Теодора,Ѓурчиновска,96/2017,ЕЕС,7,1,18,3,2,22,0,53
Теодора,Јовческа,6/2017,КТИ,2,0,12,3,0,18,0,35
Теодора,Колевска,250/2017,ТКИИ,4,0,8,13,10,16,0,51
Тијана,Настевска,257/2017,ТКИИ,2,0,4,0,3,2,0,11
Тијана,Темелковска,267/2017,ЕАОИЕ,12,2,8,3,4,18,0,47
Томче,Мачковски,226/2017,КХИЕ,2,0,0,0,3,20,0,25
Филимена,Јаковлеска,59/2017,ЕАОИЕ,10,5,20,1,3,15,0,54
Филип,Апостолоски,341/2016,КХИЕ,,,,,,,,
Филип,Димитровски,177/2017,КТИ,12,8,20,13,10,21,0,84
Филип,Додевски,245/2017,ТКИИ,2,0,4,2,1,19,0,28
Филип,Кочовски,301/2017,ЕАОИЕ,12,0,20,0,3,25,0,60
Филип,Панчевски,260/2017,ТКИИ,15,2,2,10,0,25,5,59
Филип,Серафимовски,232/2017,КХИЕ,10,1,0,0,0,23,0,34
Фросина,Стојковска,80/2017,ЕАОИЕ,12,5,6,10,3,17,0,53
Харалампие,Коцарев,114/2017,ЕЕУМ,12,6,4,0,3,18,0,43